{
  double x;
  cin >> x;
  double ans = 0;
  int i,j;
  int n;
  cin >> n;
  i=0;
  for(i=0;i<n;++i){
    double fact = 1;
    double stepx = 1;
    fact = 1;
    stepx = 1;
    for(j=0;j<i*2;++j){
      stepx = stepx * x;
    }
    for(j=1;j<=i*2;++j){
      fact = fact * j;
    }
    if(i%2==0){
      ans = ans + stepx/fact;
    }
    else if(i%2!=0){
      ans = ans - stepx/fact;
    }
  }
  cout << ans;
}